<svg width="20" height="20" viewBox="0 0 20 20" fill="none" xmlns="http://www.w3.org/2000/svg">
<g clip-path="url(#clip0)">
<path d="M13.78 11.175C13.6228 11.0232 13.4123 10.9392 13.1938 10.9411C12.9753 10.943 12.7663 11.0306 12.6118 11.1851C12.4573 11.3397 12.3697 11.5487 12.3678 11.7672C12.3659 11.9857 12.4499 12.1962 12.6017 12.3533L14.9517 14.7033L13.8542 15.8008L11.5042 13.4508C11.4273 13.3712 11.3353 13.3078 11.2337 13.2641C11.132 13.2204 11.0226 13.1974 10.912 13.1965C10.8013 13.1955 10.6916 13.2166 10.5892 13.2585C10.4868 13.3004 10.3937 13.3623 10.3155 13.4405C10.2373 13.5187 10.1754 13.6118 10.1335 13.7142C10.0916 13.8166 10.0705 13.9263 10.0715 14.037C10.0724 14.1476 10.0954 14.257 10.1391 14.3587C10.1828 14.4603 10.2462 14.5523 10.3258 14.6292L12.4567 16.7608C11.8559 17.0113 11.2052 17.1189 10.5558 17.075C10.4981 17.6636 10.2659 18.2216 9.88916 18.6775C10.2017 18.7306 10.518 18.7585 10.835 18.7608C11.601 18.762 12.3597 18.6119 13.0676 18.3192C13.7754 18.0264 14.4185 17.5968 14.96 17.055L16.7167 15.275C16.8715 15.1182 16.9578 14.9064 16.9569 14.686C16.956 14.4657 16.8678 14.2547 16.7117 14.0992L13.78 11.175Z" fill="#00B6F3"/>
<path d="M1.51747 10.7137C1.76568 10.4713 2.05414 10.2739 2.36997 10.1304C1.87449 9.30121 1.62752 8.34723 1.65843 7.38182C1.68934 6.41641 1.99684 5.48018 2.54436 4.68444C3.09188 3.8887 3.85639 3.26693 4.747 2.89305C5.63761 2.51916 6.61685 2.40889 7.56831 2.57535L7.92914 2.21452C8.28196 1.86096 8.66852 1.54278 9.08331 1.26452C7.75519 0.765859 6.30337 0.700086 4.93561 1.07661C3.56784 1.45313 2.35422 2.25265 1.46842 3.36076C0.582614 4.46887 0.0700223 5.82878 0.00399322 7.24589C-0.0620359 8.66299 0.321881 10.0647 1.10081 11.2503C1.21909 11.0564 1.35886 10.8763 1.51747 10.7137Z" fill="#00B6F3"/>
<path d="M9.11545 15.2343L5.18393 11.3028C4.33422 10.4531 2.95656 10.4531 2.10684 11.3028C1.25712 12.1525 1.25712 13.5302 2.10684 14.3799L6.03835 18.3114C6.88807 19.1611 8.26573 19.1611 9.11545 18.3114C9.96516 17.4617 9.96516 16.084 9.11545 15.2343Z" fill="#00B6F3"/>
<path d="M18.03 2.80334C16.7687 1.54203 15.058 0.833435 13.2742 0.833435C11.4904 0.833435 9.77968 1.54203 8.51834 2.80334L4.65417 6.66667L5.24417 7.25584C5.73237 7.74283 6.39378 8.01633 7.08334 8.01633C7.7729 8.01633 8.43432 7.74283 8.92251 7.25584L10.4167 5.76334L17.4367 12.91L18.0317 12.315C19.293 11.0537 20.0016 9.34295 20.0016 7.55917C20.0016 5.77539 19.293 4.06467 18.0317 2.80334H18.03Z" fill="#00B6F3"/>
</g>
<defs>
<clipPath id="clip0">
<rect width="20" height="20" fill="white"/>
</clipPath>
</defs>
</svg>
