<svg width="16" height="16" viewBox="0 0 16 16" fill="none" xmlns="http://www.w3.org/2000/svg">
<rect x="2" y="2" width="12" height="12" rx="6" fill="#00B6F3"/>
<rect x="6" y="6" width="4" height="4" rx="2" fill="white"/>
</svg>
