<svg width="36" height="34" viewBox="0 0 36 34" fill="none" xmlns="http://www.w3.org/2000/svg">
<g filter="url(#filter0_d)">
<path d="M30.25 6H13.625C13.3923 6 13.17 6.09275 13.0055 6.2555L11.875 7.38775L10.7445 6.2555C10.58 6.09275 10.3577 6 10.125 6H5.75C4.78575 6 4 6.78575 4 7.75V23.5C4 24.466 4.78575 25.25 5.75 25.25H10.125C10.3577 25.25 10.58 25.1572 10.7445 24.9945L11.875 23.8622L13.0055 24.9928C13.17 25.1572 13.3923 25.25 13.625 25.25H30.25C31.216 25.25 32 24.466 32 23.5V7.75C32 6.78575 31.216 6 30.25 6Z" fill="url(#paint0_linear)"/>
<path d="M18.875 14.75C17.4277 14.75 16.25 13.5722 16.25 12.125C16.25 10.6777 17.4277 9.5 18.875 9.5C20.3222 9.5 21.5 10.6777 21.5 12.125C21.5 13.5722 20.3222 14.75 18.875 14.75ZM18.875 11.25C18.392 11.25 18 11.642 18 12.125C18 12.608 18.392 13 18.875 13C19.358 13 19.75 12.608 19.75 12.125C19.75 11.642 19.358 11.25 18.875 11.25Z" fill="white"/>
<path d="M24.125 21.75C22.6777 21.75 21.5 20.5722 21.5 19.125C21.5 17.6777 22.6777 16.5 24.125 16.5C25.5722 16.5 26.75 17.6777 26.75 19.125C26.75 20.5722 25.5722 21.75 24.125 21.75ZM24.125 18.25C23.6437 18.25 23.25 18.6437 23.25 19.125C23.25 19.6063 23.6437 20 24.125 20C24.6063 20 25 19.6063 25 19.125C25 18.6437 24.6063 18.25 24.125 18.25Z" fill="white"/>
<path d="M17.1249 21.75C16.9272 21.75 16.7294 21.6835 16.5649 21.547C16.1939 21.2373 16.1432 20.686 16.4529 20.315L25.2029 9.81502C25.5144 9.44227 26.0657 9.39677 26.4349 9.70302C26.8059 10.0128 26.8549 10.564 26.5452 10.9368L17.7952 21.4368C17.6237 21.6415 17.3752 21.75 17.1249 21.75Z" fill="white"/>
<path d="M12.75 9.5H11V11.25H12.75V9.5Z" fill="white"/>
<path d="M12.75 20H11V21.75H12.75V20Z" fill="white"/>
<path d="M12.75 16.5H11V18.25H12.75V16.5Z" fill="white"/>
<path d="M12.75 13H11V14.75H12.75V13Z" fill="white"/>
</g>
<defs>
<filter id="filter0_d" x="-2" y="0" width="40" height="40" filterUnits="userSpaceOnUse" color-interpolation-filters="sRGB">
<feFlood flood-opacity="0" result="BackgroundImageFix"/>
<feColorMatrix in="SourceAlpha" type="matrix" values="0 0 0 0 0 0 0 0 0 0 0 0 0 0 0 0 0 0 127 0"/>
<feOffset dy="4"/>
<feGaussianBlur stdDeviation="2"/>
<feColorMatrix type="matrix" values="0 0 0 0 0.305882 0 0 0 0 0.764706 0 0 0 0 0.501961 0 0 0 0.15 0"/>
<feBlend mode="normal" in2="BackgroundImageFix" result="effect1_dropShadow"/>
<feBlend mode="normal" in="SourceGraphic" in2="effect1_dropShadow" result="shape"/>
</filter>
<linearGradient id="paint0_linear" x1="18" y1="6" x2="18" y2="25.25" gradientUnits="userSpaceOnUse">
<stop stop-color="#5BD68E"/>
<stop offset="1" stop-color="#48BB78"/>
</linearGradient>
</defs>
</svg>
