<svg width="16" height="16" viewBox="0 0 16 16" fill="none" xmlns="http://www.w3.org/2000/svg">
<path d="M2.6665 7.5556V6.22226C2.6665 5.98651 2.76015 5.76042 2.92685 5.59372C3.09355 5.42702 3.31964 5.33337 3.55539 5.33337H7.11095C7.3467 5.33337 7.57279 5.42702 7.73949 5.59372C7.90619 5.76042 7.99984 5.98651 7.99984 6.22226V7.5556" stroke="#4A5568" stroke-linecap="round" stroke-linejoin="round"/>
<path d="M8 7.5556V6.22226C8 5.98651 8.09365 5.76042 8.26035 5.59372C8.42705 5.42702 8.65314 5.33337 8.88889 5.33337H12.4444C12.6802 5.33337 12.9063 5.42702 13.073 5.59372C13.2397 5.76042 13.3333 5.98651 13.3333 6.22226V7.5556" stroke="#4A5568" stroke-linecap="round" stroke-linejoin="round"/>
<path d="M2.51844 7.5556H13.4814C13.7957 7.5556 14.0972 7.68047 14.3195 7.90274C14.5417 8.125 14.6666 8.42646 14.6666 8.74079V11.5556H1.33325V8.74079C1.33325 8.42646 1.45812 8.125 1.68038 7.90274C1.90265 7.68047 2.20411 7.5556 2.51844 7.5556V7.5556Z" stroke="#4A5568" stroke-linecap="round" stroke-linejoin="round"/>
<path d="M1.33325 11.5556V13.3334" stroke="#4A5568" stroke-linecap="round" stroke-linejoin="round"/>
<path d="M14.6665 11.5556V13.3334" stroke="#4A5568" stroke-linecap="round" stroke-linejoin="round"/>
<path d="M13.3332 7.55558V3.55558C13.3332 3.31983 13.2395 3.09374 13.0728 2.92704C12.9061 2.76034 12.68 2.66669 12.4443 2.66669H3.55539C3.31964 2.66669 3.09355 2.76034 2.92685 2.92704C2.76015 3.09374 2.6665 3.31983 2.6665 3.55558V7.55558" stroke="#4A5568" stroke-linecap="round" stroke-linejoin="round"/>
</svg>
