<svg width="32" height="32" viewBox="0 0 32 32" fill="none" xmlns="http://www.w3.org/2000/svg">
<rect width="32" height="32" rx="14" fill="#FFAE34"/>
<path d="M12.0986 9.33331C10.8658 9.33331 9.68449 9.88411 8.85243 10.8427C7.88208 11.9654 7.48832 13.5452 7.74145 15.2913C8.311 19.2149 12.3635 22.5197 16.0011 24.0151C19.6364 22.5197 23.6866 19.2149 24.2585 15.2913C24.5116 13.5452 24.1178 11.9654 23.1475 10.8427C22.3178 9.88411 21.1341 9.33331 19.9036 9.33331C18.6614 9.33331 17.4988 9.90052 16.6293 10.9295L16.0035 11.6701L15.3777 10.9295C14.5034 9.90052 13.3409 9.33331 12.0986 9.33331Z" fill="url(#paint0_linear)"/>
<defs>
<linearGradient id="paint0_linear" x1="16" y1="9.33331" x2="16" y2="24.0151" gradientUnits="userSpaceOnUse">
<stop stop-color="white"/>
<stop offset="1" stop-color="white" stop-opacity="0.65"/>
</linearGradient>
</defs>
</svg>
