<svg width="84" height="64" viewBox="0 0 84 64" fill="none" xmlns="http://www.w3.org/2000/svg">
<path d="M76.3964 40.7582L68.6494 19.4736C68.3794 18.7379 67.8285 18.1394 67.1177 17.8095L36.0537 3.3241C34.6315 2.66093 33.0042 2.58988 31.5296 3.12658C30.0551 3.66327 28.8541 4.76376 28.1909 6.18593L3.186 59.8091C2.52283 61.2313 2.45178 62.8587 2.98848 64.3332C3.52517 65.8078 4.62565 67.0088 6.04783 67.672L48.9464 87.6759C50.3686 88.3391 51.996 88.4101 53.4705 87.8734C54.9451 87.3367 56.146 86.2362 56.8092 84.8141L76.298 43.0201C76.6295 42.309 76.6648 41.4954 76.3964 40.7582ZM52.072 80.973C51.9062 81.3285 51.606 81.6036 51.2373 81.7378C50.8687 81.872 50.4619 81.8542 50.1063 81.6884L9.8889 62.9348C9.53336 62.769 9.25824 62.4687 9.12406 62.1001C8.98989 61.7314 9.00765 61.3246 9.17345 60.9691L32.9281 10.027C33.0939 9.67146 33.3941 9.39634 33.7628 9.26217C34.1314 9.12799 34.5383 9.14575 34.8938 9.31155L62.3757 22.1266C62.5535 22.2095 62.691 22.3596 62.7581 22.5439C62.8252 22.7282 62.8163 22.9316 62.7334 23.1094L59.2953 30.4826C58.6321 31.9048 58.561 33.5322 59.0977 35.0067C59.6344 36.4813 60.7349 37.6823 62.1571 38.3454L69.5303 41.7836C69.7081 41.8665 69.8456 42.0166 69.9127 42.2009C69.9798 42.3853 69.9709 42.5887 69.888 42.7664L52.072 80.973Z" fill="#EDF2F7"/>
<path d="M36.3342 37.7223L30.9719 35.2218C30.2315 34.8766 29.3515 35.1969 29.0062 35.9373L27.756 38.6184C27.4107 39.3588 27.7311 40.2389 28.4714 40.5841L33.8338 43.0846C34.5741 43.4299 35.4542 43.1095 35.7995 42.3692L37.0497 39.688C37.395 38.9476 37.0746 38.0675 36.3342 37.7223Z" fill="#EDF2F7"/>
<path d="M31.9588 47.1063L26.5964 44.6058C25.8561 44.2606 24.976 44.5809 24.6307 45.3213L23.3805 48.0025C23.0352 48.7428 23.3556 49.6229 24.0959 49.9682L29.4583 52.4686C30.1987 52.8139 31.0787 52.4936 31.424 51.7532L32.6742 49.072C33.0195 48.3316 32.6991 47.4516 31.9588 47.1063Z" fill="#EDF2F7"/>
<path d="M27.5828 56.4904L22.2205 53.9899C21.4801 53.6446 20.6 53.9649 20.2548 54.7053L19.0045 57.3865C18.6593 58.1269 18.9796 59.0069 19.72 59.3522L25.0823 61.8527C25.8227 62.1979 26.7027 61.8776 27.048 61.1372L28.2982 58.4561C28.6435 57.7157 28.3232 56.8356 27.5828 56.4904Z" fill="#EDF2F7"/>
<path d="M57.7837 47.7243L43.0374 40.8479C42.297 40.5027 41.4169 40.823 41.0717 41.5634L39.8214 44.2445C39.4762 44.9849 39.7965 45.865 40.5369 46.2102L55.2832 53.0866C56.0236 53.4318 56.9037 53.1115 57.249 52.3711L58.4992 49.69C58.8444 48.9496 58.5241 48.0695 57.7837 47.7243Z" fill="#EDF2F7"/>
<path d="M53.4078 57.1083L38.6614 50.2319C37.921 49.8867 37.0409 50.207 36.6957 50.9474L35.4454 53.6286C35.1002 54.3689 35.4205 55.249 36.1609 55.5943L50.9073 62.4706C51.6477 62.8159 52.5277 62.4955 52.873 61.7551L54.1232 59.074C54.4685 58.3336 54.1481 57.4535 53.4078 57.1083Z" fill="#EDF2F7"/>
<path d="M49.0318 66.4923L34.2854 59.616C33.545 59.2707 32.6649 59.591 32.3197 60.3314L31.0695 63.0126C30.7242 63.753 31.0445 64.633 31.7849 64.9783L46.5313 71.8546C47.2717 72.1999 48.1518 71.8796 48.497 71.1392L49.7472 68.458C50.0925 67.7176 49.7722 66.8376 49.0318 66.4923Z" fill="#EDF2F7"/>
</svg>
