<svg xmlns="http://www.w3.org/2000/svg" width="12" height="15" viewBox="0 0 12 15">
    <g fill="none" fill-rule="evenodd">
        <g fill="#2E8AF1" stroke="#2E8AF1">
            <g>
                <g>
                    <g>
                        <g>
                            <g>
                                <g>
                                    <g>
                                        <path d="M0.5 5.643H11.5V6.643H0.5z" transform="translate(-432 -297) translate(73 89) translate(16 23.902) translate(0 54.098) translate(204 113) translate(26 12.549) translate(107) translate(6 6)"/>
                                        <path d="M11.5 5.643v.714H.5v-.714h11z" transform="translate(-432 -297) translate(73 89) translate(16 23.902) translate(0 54.098) translate(204 113) translate(26 12.549) translate(107) translate(6 6) rotate(90 6 6)"/>
                                    </g>
                                </g>
                            </g>
                        </g>
                    </g>
                </g>
            </g>
        </g>
    </g>
</svg>
