<svg width="14" height="18" viewBox="0 0 14 18" fill="none" xmlns="http://www.w3.org/2000/svg">
<path d="M6.88247 6.08819C8.56368 6.08819 9.92657 4.7253 9.92657 3.0441C9.92657 1.36289 8.56368 0 6.88247 0C5.20127 0 3.83838 1.36289 3.83838 3.0441C3.83838 4.7253 5.20127 6.08819 6.88247 6.08819Z" fill="#718096"/>
<path d="M6.09078 16.5157C6.3449 16.8942 6.2946 17.3998 5.97166 17.7201C5.60108 18.0933 4.99755 18.0933 4.62432 17.7201L2.21552 15.3113C1.85287 14.9486 1.91111 14.4197 2.18904 13.9904C3.7058 11.647 3.7058 11.647 3.7058 11.647L6.35284 13.4999L4.76461 14.8234C4.76726 14.8261 6.08813 16.513 6.09078 16.5157Z" fill="#718096"/>
<path d="M7.67368 16.5157C7.4193 16.8942 7.46986 17.3998 7.79253 17.7201C8.16312 18.0933 8.76691 18.0933 9.13987 17.7201L11.5489 15.3113C11.9116 14.9486 11.8531 14.4197 11.5757 13.9904C10.0587 11.647 10.0587 11.647 10.0587 11.647L7.41162 13.4999L8.99985 14.8234C8.9972 14.8261 7.67633 16.513 7.67368 16.5157Z" fill="#718096"/>
<path d="M13.2508 6.94248H13.2455C12.3535 7.49572 11.3847 7.94042 10.3603 8.24747C10.0241 8.34806 9.79379 8.65777 9.79379 9.00717V11.1177H3.9703V9.00691C3.9703 8.6575 3.74001 8.3478 3.40384 8.24721C2.37943 7.94015 1.41061 7.49545 0.518561 6.94222H0.513268C0.208858 6.75163 0.0870943 6.37046 0.227387 6.03693C0.375622 5.69282 0.756795 5.52076 1.10885 5.62399C1.13268 5.63458 1.15915 5.64252 1.18297 5.65311C1.18826 5.65576 1.19356 5.6584 1.1962 5.66105C2.94325 6.40222 4.865 6.81251 6.88205 6.81251C8.89909 6.81251 10.8208 6.40222 12.5679 5.66105C12.5705 5.6584 12.5756 5.65576 12.5811 5.65311C12.6049 5.64252 12.6312 5.63458 12.655 5.62399C13.007 5.52076 13.3885 5.69282 13.5364 6.03693C13.677 6.37046 13.5552 6.75163 13.2508 6.94248Z" fill="#718096"/>
</svg>
