<svg width="16" height="16" viewBox="0 0 16 16" fill="none" xmlns="http://www.w3.org/2000/svg">
<path d="M11.3098 11.9764L13.1718 13.8384" stroke="#48BB78" stroke-miterlimit="10" stroke-linecap="round" stroke-linejoin="round"/>
<path d="M3.24133 3.90796L8.20657 8.87319" stroke="#48BB78" stroke-miterlimit="10" stroke-linecap="round" stroke-linejoin="round"/>
<path d="M4.48262 2.66666L7.58589 5.76993L5.10327 8.25255L2 5.14927" stroke="#48BB78" stroke-miterlimit="10" stroke-linecap="round" stroke-linejoin="round"/>
<path d="M3.24133 13.8384L13.7925 3.28732C14.0482 4.15035 14.068 5.06616 13.8497 5.93941C13.6314 6.81266 13.183 7.61143 12.5511 8.25256C10.3565 10.4472 8.82722 10.7352 8.82722 10.7352" stroke="#48BB78" stroke-miterlimit="10" stroke-linecap="round" stroke-linejoin="round"/>
</svg>
    