<svg width="11" height="22" viewBox="0 0 11 22" fill="none" xmlns="http://www.w3.org/2000/svg">
<path d="M4.53926 7.51461C3.26928 7.67959 2.10369 8.31769 1.2661 9.30648C0.428521 10.2953 -0.0220531 11.5651 0.000830765 12.8723V15.9149C0.000830765 16.039 0.0491194 16.1581 0.135074 16.2459C0.221028 16.3337 0.337607 16.383 0.459165 16.383H2.11833C2.17576 16.383 2.23109 16.405 2.27336 16.4447C2.31563 16.4844 2.34176 16.5389 2.34658 16.5974L2.75084 21.5712C2.76051 21.6884 2.81304 21.7976 2.89796 21.8771C2.98289 21.9565 3.094 22.0004 3.20917 22H6.87584C6.99101 22.0004 7.10212 21.9565 7.18705 21.8771C7.27198 21.7976 7.3245 21.6884 7.33418 21.5712L7.74026 16.5974C7.74508 16.5389 7.77122 16.4844 7.81349 16.4447C7.85576 16.405 7.91108 16.383 7.96851 16.383H9.62585C9.7474 16.383 9.86398 16.3337 9.94994 16.2459C10.0359 16.1581 10.0842 16.039 10.0842 15.9149V12.6383C10.0834 11.919 9.93521 11.2078 9.64916 10.5505C9.3631 9.89325 8.94552 9.30437 8.42326 8.82179C7.90099 8.3392 7.28562 7.97359 6.6167 7.74846C5.94778 7.52333 5.24013 7.44368 4.53926 7.51461Z" fill="#718096"/>
<path d="M5.04251 6.5532C6.81442 6.5532 8.25084 5.08622 8.25084 3.2766C8.25084 1.46698 6.81442 0 5.04251 0C3.27059 0 1.83417 1.46698 1.83417 3.2766C1.83417 5.08622 3.27059 6.5532 5.04251 6.5532Z" fill="#718096"/>
</svg>
