<svg width="40" height="40" viewBox="0 0 40 40" fill="none" xmlns="http://www.w3.org/2000/svg">
<path d="M40 22.5V28.3499C40 34.7749 34.7749 40 28.3501 40C25.275 40 22.325 38.775 20.125 36.6C18.8251 35.2999 16.975 33.45 10 26.4748C10.975 25.5 12.2501 25 13.5499 25C14.8249 25 16.1 25.5 17.075 26.4749L20 29.4V15H25V17.5C25 16.125 26.125 15 27.5 15C28.875 15 30 16.125 30 17.5V20C30 18.625 31.125 17.5 32.5 17.5C33.875 17.5 35 18.625 35 20V22.5C35 21.125 36.125 20 37.5 20C38.875 20 40 21.125 40 22.5Z" fill="#4DB5FF"/>
<path d="M25 0V15H5L0 20V0H25Z" fill="#80EAFF"/>
<path d="M12.4995 10.9695L15.9237 12.7697L15.2698 8.95674L18.0401 6.25643L14.2116 5.7001L12.4995 2.23096L10.7874 5.7001L6.95898 6.25643L9.7293 8.95674L9.07531 12.7697L12.4995 10.9695Z" fill="#4DB5FF"/>
<path d="M25 15H20V7.5C20 6.1193 21.1193 5 22.5 5C23.8807 5 25 6.1193 25 7.5V15Z" fill="#3377FF"/>
</svg>
