<svg width="16" height="16" viewBox="0 0 16 16" fill="none" xmlns="http://www.w3.org/2000/svg">
<path d="M12.6667 4.66667H3.33333C2.59695 4.66667 2 5.26363 2 6.00001V12C2 12.7364 2.59695 13.3333 3.33333 13.3333H12.6667C13.403 13.3333 14 12.7364 14 12V6.00001C14 5.26363 13.403 4.66667 12.6667 4.66667Z" stroke="#4A5568" stroke-linecap="round" stroke-linejoin="round"/>
<path d="M5.3335 4.66667V3.33333C5.3335 2.97971 5.47397 2.64057 5.72402 2.39052C5.97407 2.14048 6.31321 2 6.66683 2H9.3335C9.68712 2 10.0263 2.14048 10.2763 2.39052C10.5264 2.64057 10.6668 2.97971 10.6668 3.33333V4.66667" stroke="#4A5568" stroke-linecap="round" stroke-linejoin="round"/>
<path d="M8 8V8.00667" stroke="#4A5568" stroke-linecap="round" stroke-linejoin="round"/>
<path d="M2 8.66667C3.86105 9.60446 5.91602 10.093 8 10.093C10.084 10.093 12.1389 9.60446 14 8.66667" stroke="#4A5568" stroke-linecap="round" stroke-linejoin="round"/>
</svg>
