<svg width="36" height="36" viewBox="0 0 36 36" fill="none" xmlns="http://www.w3.org/2000/svg">
<path d="M34.5 0H1.5C0.671573 0 0 0.671573 0 1.5V34.5C0 35.3284 0.671573 36 1.5 36H34.5C35.3284 36 36 35.3284 36 34.5V1.5C36 0.671573 35.3284 0 34.5 0Z" fill="white"/>
<path d="M18.75 4.5L6.375 11.25V25.875L18.75 32.625L31.125 25.875V11.25L18.75 4.5Z" stroke="#1A202C" stroke-width="2" stroke-linecap="round" stroke-linejoin="round"/>
<path d="M18.75 11.25L12 14.625V22.5L18.75 25.875L25.5 22.5V14.625L18.75 11.25Z" fill="url(#paint0_linear)" stroke="#1A202C" stroke-width="2" stroke-linecap="round" stroke-linejoin="round"/>
<path d="M18.75 11.25V4.5" stroke="#1A202C" stroke-width="2" stroke-linecap="round" stroke-linejoin="round"/>
<path d="M18.75 25.875V32.625" stroke="#1A202C" stroke-width="2" stroke-linecap="round" stroke-linejoin="round"/>
<path d="M25.5 22.5L31.125 25.875" stroke="#1A202C" stroke-width="2" stroke-linecap="round" stroke-linejoin="round"/>
<path d="M25.5 14.625L31.125 11.25" stroke="#1A202C" stroke-width="2" stroke-linecap="round" stroke-linejoin="round"/>
<path d="M12 14.625L6.375 11.25" stroke="#1A202C" stroke-width="2" stroke-linecap="round" stroke-linejoin="round"/>
<path d="M12 22.5L6.375 25.875" stroke="#1A202C" stroke-width="2" stroke-linecap="round" stroke-linejoin="round"/>
<path d="M5.25 1.125V7.875" stroke="#1A202C" stroke-width="2" stroke-linecap="round" stroke-linejoin="round"/>
<path d="M1.875 4.5H8.625" stroke="#1A202C" stroke-width="2" stroke-linecap="round" stroke-linejoin="round"/>
<path d="M32.25 30.375V34.875" stroke="#1A202C" stroke-width="2" stroke-linecap="round" stroke-linejoin="round"/>
<path d="M30 32.625H34.5" stroke="#1A202C" stroke-width="2" stroke-linecap="round" stroke-linejoin="round"/>
<defs>
<linearGradient id="paint0_linear" x1="18.75" y1="11.25" x2="18.75" y2="25.875" gradientUnits="userSpaceOnUse">
<stop stop-color="#FFC8E2"/>
<stop offset="1" stop-color="white"/>
</linearGradient>
</defs>
</svg>
