<svg width="16" height="16" viewBox="0 0 16 16" fill="none" xmlns="http://www.w3.org/2000/svg">
<path d="M8.46675 3.8V2C8.46675 1.44771 8.01903 1 7.46675 1H6.66675C6.11446 1 5.66675 1.44772 5.66675 2V3.8" stroke="#1A202C" stroke-linecap="round" stroke-linejoin="round"/>
<path d="M1 7.46672C1 8.019 1.44772 8.46672 2 8.46672H11.838C12.0719 8.46672 12.2984 8.3847 12.4781 8.23494L14.0781 6.9016C14.5579 6.50181 14.5579 5.76496 14.0781 5.36516L12.4781 4.03183C12.2984 3.88206 12.0719 3.80005 11.838 3.80005H2C1.44771 3.80005 1 4.24776 1 4.80005V7.46672Z" stroke="#1A202C" stroke-linecap="round" stroke-linejoin="round"/>
<path d="M5.66675 10.3334V14C5.66675 14.5523 6.11446 15 6.66675 15H7.46675C8.01903 15 8.46675 14.5523 8.46675 14V10.3334" stroke="#1A202C" stroke-linecap="round" stroke-linejoin="round"/>
</svg>
