<svg width="6" height="11" viewBox="0 0 6 11" fill="none" xmlns="http://www.w3.org/2000/svg">
<path d="M0.5 7.5L3 10M3 10L3 0.5M3 10L5.5 7.5" stroke="#A0AEC0" stroke-linecap="round" stroke-linejoin="round"/>
</svg>
