<svg width="20" height="20" viewBox="0 0 20 20" fill="none" xmlns="http://www.w3.org/2000/svg">
<path d="M16.5344 6.91134L11.5347 3.02617C11.0959 2.68515 10.5559 2.5 10 2.5C9.4441 2.5 8.90407 2.68515 8.46531 3.02617L3.46469 6.91134C3.16417 7.14483 2.92103 7.44384 2.75383 7.78554C2.58664 8.12725 2.49982 8.50261 2.5 8.88295V15.6267C2.5 16.1236 2.69754 16.6 3.04917 16.9513C3.40081 17.3026 3.87772 17.5 4.375 17.5H15.625C16.1223 17.5 16.5992 17.3026 16.9508 16.9513C17.3025 16.6 17.5 16.1236 17.5 15.6267V8.88295C17.5 8.1121 17.1438 7.38434 16.5344 6.91134Z" fill="white" stroke="#4A5568" stroke-width="1.5" stroke-linecap="round" stroke-linejoin="round"/>
<path d="M13.7219 12.8028C11.65 14.0525 8.29186 14.0525 6.22186 12.8028" stroke="#4A5568" stroke-width="1.5" stroke-linecap="round" stroke-linejoin="round"/>
</svg>
