<svg width="36" height="36" viewBox="0 0 36 36" fill="none" xmlns="http://www.w3.org/2000/svg">
<path d="M34.5 0H1.5C0.671573 0 0 0.671573 0 1.5V34.5C0 35.3284 0.671573 36 1.5 36H34.5C35.3284 36 36 35.3284 36 34.5V1.5C36 0.671573 35.3284 0 34.5 0Z" fill="white"/>
<path d="M2.25 30.381H33.75" stroke="#1A202C" stroke-width="2" stroke-linecap="round" stroke-linejoin="round"/>
<path d="M18 1.13098V7.88098" stroke="#1A202C" stroke-width="2" stroke-linecap="round" stroke-linejoin="round"/>
<path d="M4.5 30.381V12.381C4.5 9.99403 5.44821 7.70485 7.13604 6.01702C8.82387 4.32919 11.1131 3.38098 13.5 3.38098H22.5C24.8869 3.38098 27.1761 4.32919 28.864 6.01702C30.5518 7.70485 31.5 9.99403 31.5 12.381V30.381" stroke="#1A202C" stroke-width="2" stroke-linecap="round" stroke-linejoin="round"/>
<path d="M13.5 7.88098H22.5" stroke="#1A202C" stroke-width="2" stroke-linecap="round" stroke-linejoin="round"/>
<path d="M24.75 16.881H11.25C10.0074 16.881 9 17.8883 9 19.131V28.131C9 29.3736 10.0074 30.381 11.25 30.381H24.75C25.9926 30.381 27 29.3736 27 28.131V19.131C27 17.8883 25.9926 16.881 24.75 16.881Z" fill="url(#paint0_linear)" stroke="#1A202C" stroke-width="2" stroke-linecap="round" stroke-linejoin="round"/>
<path d="M20.25 12.381H15.75C15.1533 12.381 14.581 12.618 14.159 13.04C13.7371 13.4619 13.5 14.0342 13.5 14.631V16.881H22.5V14.631C22.5 14.0342 22.2629 13.4619 21.841 13.04C21.419 12.618 20.8467 12.381 20.25 12.381V12.381Z" stroke="#1A202C" stroke-width="2" stroke-linecap="round" stroke-linejoin="round"/>
<path d="M11.25 31.5C11.25 32.3951 10.8944 33.2535 10.2615 33.8865C9.62855 34.5194 8.77011 34.875 7.875 34.875C6.97989 34.875 6.12145 34.5194 5.48851 33.8865C4.85558 33.2535 4.5 32.3951 4.5 31.5V30.375H11.25V31.5Z" stroke="#1A202C" stroke-width="2" stroke-linecap="round" stroke-linejoin="round"/>
<path d="M31.5 31.5C31.5 31.9432 31.4127 32.3821 31.2431 32.7916C31.0735 33.201 30.8249 33.5731 30.5115 33.8865C30.1981 34.1999 29.826 34.4485 29.4166 34.6181C29.0071 34.7877 28.5682 34.875 28.125 34.875C27.6818 34.875 27.2429 34.7877 26.8334 34.6181C26.424 34.4485 26.0519 34.1999 25.7385 33.8865C25.4251 33.5731 25.1765 33.201 25.0069 32.7916C24.8373 32.3821 24.75 31.9432 24.75 31.5V30.375H31.5V31.5Z" stroke="#1A202C" stroke-width="2" stroke-linecap="round" stroke-linejoin="round"/>
<defs>
<linearGradient id="paint0_linear" x1="18" y1="16.881" x2="18" y2="30.381" gradientUnits="userSpaceOnUse">
<stop stop-color="#FFC8E2"/>
<stop offset="1" stop-color="white"/>
</linearGradient>
</defs>
</svg>
